{
  "conversations": [
    {
      "id": 123,
      "firstName": "Allison",
      "lastName": "Velez",
      "message": "What should I do? This is a super long message to see what it looks like when text is really far too long. Maybe there are some other details too. And this other thing.",
      "timeStamp": "2017-07-20T21:33:29.000Z",
      "locationStamp": "THD123",
      "isRead": false
    },
    {
      "id": 234,
      "firstName": "William",
      "lastName": "Bullock",
      "message": "Well you do x, y, z.",
      "timeStamp": "2017-06-21T20:33:29.000Z",
      "locationStamp": null,
      "isRead": true
    },
  ]
}
