[
  "Front or Rear Deraileur Repair",
  "Freewheel Cluster Replace",
  "Front Fork Replace",
  "Front or Rear Brake Assembly Replace",
  "Front or Rear Brake Cable Housing Replace",
  "Front or Rear Brake Cable Replace",
  "Front or Rear Brake Lever Replace",
  "Pillow Block Replace"
]
